inclass6-26-23 - Median Age in US Counties
…
Median Age in US Counties

# A tibble: 3,221 × 5
   GEOID NAME                        population med_age_male med_age_female
   <chr> <chr>                            <dbl>        <dbl>          <dbl>
 1 05131 Sebastian County, Arkansas      125744         35.3           38  
 2 05133 Sevier County, Arkansas          17058         32.7           34.6
 3 05135 Sharp County, Arkansas           17264         45.8           48.2
 4 05137 Stone County, Arkansas           12394         46.9           48.4
 5 05139 Union County, Arkansas           41639         38.5           41.5
 6 05141 Van Buren County, Arkansas       17295         45.5           47.7
 7 05143 Washington County, Arkansas     203065         30             31.6
 8 05145 White County, Arkansas           77076         34.8           37.1
 9 05149 Yell County, Arkansas            22185         36.5           39  
10 06011 Colusa County, California        21419         32.5           34.6
# ℹ 3,211 more rows
